<?xml version="1.0" encoding="UTF-8"?>
<svg width="14px" height="16px" viewBox="0 0 14 16" version="1.1" xmlns="http://www.w3.org/2000/svg" xmlns:xlink="http://www.w3.org/1999/xlink">
    <!-- Generator: Sketch 53.1 (72631) - https://sketchapp.com -->
    <title>SCHL_Calendar</title>
    <desc>Created with Sketch.</desc>
    <g id="Schluss-POC-New-User" stroke="none" stroke-width="1" fill="none" fill-rule="evenodd">
        <path d="M4.33592716,9.31251118 L3.16405496,9.31251118 C3.06639909,9.31251118 2.98339118,9.27833142 2.91503211,9.20997236 C2.84667305,9.14161329 2.81249329,9.05860538 2.81249329,8.96094951 L2.81249329,7.78907731 C2.81249329,7.69142144 2.84667305,7.60841353 2.91503211,7.54005446 C2.98339118,7.4716954 3.06639909,7.43751565 3.16405496,7.43751565 L4.33592716,7.43751565 C4.43358303,7.43751565 4.51659094,7.4716954 4.58495001,7.54005446 C4.65330907,7.60841353 4.68748882,7.69142144 4.68748882,7.78907731 L4.68748882,8.96094951 C4.68748882,9.05860538 4.65330907,9.14161329 4.58495001,9.20997236 C4.51659094,9.27833142 4.43358303,9.31251118 4.33592716,9.31251118 Z M7.49998212,7.78907731 L7.49998212,8.96094951 C7.49998212,9.05860538 7.46580236,9.14161329 7.3974433,9.20997236 C7.32908424,9.27833142 7.24607632,9.31251118 7.14842046,9.31251118 L5.97654825,9.31251118 C5.87889238,9.31251118 5.79588447,9.27833142 5.72752541,9.20997236 C5.65916634,9.14161329 5.62498659,9.05860538 5.62498659,8.96094951 L5.62498659,7.78907731 C5.62498659,7.69142144 5.65916634,7.60841353 5.72752541,7.54005446 C5.79588447,7.4716954 5.87889238,7.43751565 5.97654825,7.43751565 L7.14842046,7.43751565 C7.24607632,7.43751565 7.32908424,7.4716954 7.3974433,7.54005446 C7.46580236,7.60841353 7.49998212,7.69142144 7.49998212,7.78907731 Z M10.3124754,7.78907731 L10.3124754,8.96094951 C10.3124754,9.05860538 10.2782957,9.14161329 10.2099366,9.20997236 C10.1415775,9.27833142 10.0585696,9.31251118 9.96091375,9.31251118 L8.78904155,9.31251118 C8.69138568,9.31251118 8.60837776,9.27833142 8.5400187,9.20997236 C8.47165964,9.14161329 8.43747988,9.05860538 8.43747988,8.96094951 L8.43747988,7.78907731 C8.43747988,7.69142144 8.47165964,7.60841353 8.5400187,7.54005446 C8.60837776,7.4716954 8.69138568,7.43751565 8.78904155,7.43751565 L9.96091375,7.43751565 C10.0585696,7.43751565 10.1415775,7.4716954 10.2099366,7.54005446 C10.2782957,7.60841353 10.3124754,7.69142144 10.3124754,7.78907731 Z M7.49998212,10.6015706 L7.49998212,11.7734428 C7.49998212,11.8710987 7.46580236,11.9541066 7.3974433,12.0224657 C7.32908424,12.0908247 7.24607632,12.1250045 7.14842046,12.1250045 L5.97654825,12.1250045 C5.87889238,12.1250045 5.79588447,12.0908247 5.72752541,12.0224657 C5.65916634,11.9541066 5.62498659,11.8710987 5.62498659,11.7734428 L5.62498659,10.6015706 C5.62498659,10.5039147 5.65916634,10.4209068 5.72752541,10.3525478 C5.79588447,10.2841887 5.87889238,10.2500089 5.97654825,10.2500089 L7.14842046,10.2500089 C7.24607632,10.2500089 7.32908424,10.2841887 7.3974433,10.3525478 C7.46580236,10.4209068 7.49998212,10.5039147 7.49998212,10.6015706 Z M4.68748882,10.6015706 L4.68748882,11.7734428 C4.68748882,11.8710987 4.65330907,11.9541066 4.58495001,12.0224657 C4.51659094,12.0908247 4.43358303,12.1250045 4.33592716,12.1250045 L3.16405496,12.1250045 C3.06639909,12.1250045 2.98339118,12.0908247 2.91503211,12.0224657 C2.84667305,11.9541066 2.81249329,11.8710987 2.81249329,11.7734428 L2.81249329,10.6015706 C2.81249329,10.5039147 2.84667305,10.4209068 2.91503211,10.3525478 C2.98339118,10.2841887 3.06639909,10.2500089 3.16405496,10.2500089 L4.33592716,10.2500089 C4.43358303,10.2500089 4.51659094,10.2841887 4.58495001,10.3525478 C4.65330907,10.4209068 4.68748882,10.5039147 4.68748882,10.6015706 Z M10.3124754,10.6015706 L10.3124754,11.7734428 C10.3124754,11.8710987 10.2782957,11.9541066 10.2099366,12.0224657 C10.1415775,12.0908247 10.0585696,12.1250045 9.96091375,12.1250045 L8.78904155,12.1250045 C8.69138568,12.1250045 8.60837776,12.0908247 8.5400187,12.0224657 C8.47165964,11.9541066 8.43747988,11.8710987 8.43747988,11.7734428 L8.43747988,10.6015706 C8.43747988,10.5039147 8.47165964,10.4209068 8.5400187,10.3525478 C8.60837776,10.2841887 8.69138568,10.2500089 8.78904155,10.2500089 L9.96091375,10.2500089 C10.0585696,10.2500089 10.1415775,10.2841887 10.2099366,10.3525478 C10.2782957,10.4209068 10.3124754,10.5039147 10.3124754,10.6015706 Z M13.1249687,4.15627347 L13.1249687,14.4687489 C13.1249687,14.8593728 12.9882501,15.1914036 12.7148134,15.4648403 C12.4413767,15.738277 12.109346,15.8749955 11.7187221,15.8749955 L1.40624665,15.8749955 C1.01562273,15.8749955 0.683591971,15.738277 0.410155272,15.4648403 C0.136718573,15.1914036 0,14.8593728 0,14.4687489 L0,4.15627347 C0,3.76564955 0.136718573,3.43361879 0.410155272,3.16018209 C0.683591971,2.8867454 1.01562273,2.75002682 1.40624665,2.75002682 L2.81249329,2.75002682 L2.81249329,1.22659295 C2.81249329,1.12893709 2.84667305,1.04592917 2.91503211,0.97757011 C2.98339118,0.909211047 3.06639909,0.875031292 3.16405496,0.875031292 L4.33592716,0.875031292 C4.43358303,0.875031292 4.51659094,0.909211047 4.58495001,0.97757011 C4.65330907,1.04592917 4.68748882,1.12893709 4.68748882,1.22659295 L4.68748882,2.75002682 L8.43747988,2.75002682 L8.43747988,1.22659295 C8.43747988,1.12893709 8.47165964,1.04592917 8.5400187,0.97757011 C8.60837776,0.909211047 8.69138568,0.875031292 8.78904155,0.875031292 L9.96091375,0.875031292 C10.0585696,0.875031292 10.1415775,0.909211047 10.2099366,0.97757011 C10.2782957,1.04592917 10.3124754,1.12893709 10.3124754,1.22659295 L10.3124754,2.75002682 L11.7187221,2.75002682 C12.109346,2.75002682 12.4413767,2.8867454 12.7148134,3.16018209 C12.9882501,3.43361879 13.1249687,3.76564955 13.1249687,4.15627347 Z M11.7187221,14.2929681 L11.7187221,5.56252012 L1.40624665,5.56252012 L1.40624665,14.2929681 C1.40624665,14.3320303 1.425778,14.371093 1.46484026,14.4101553 C1.50390252,14.4492175 1.54296522,14.4687489 1.58202748,14.4687489 L11.5429412,14.4687489 C11.5820035,14.4687489 11.6210662,14.4492175 11.6601285,14.4101553 C11.6991907,14.371093 11.7187221,14.3320303 11.7187221,14.2929681 Z" id="SCHL_Calendar" fill="#7c859a" fill-rule="nonzero"></path>
    </g>
</svg>