<?xml version="1.0" encoding="UTF-8"?>
<svg width="24px" height="24px" viewBox="0 0 24 24" version="1.1" xmlns="http://www.w3.org/2000/svg" xmlns:xlink="http://www.w3.org/1999/xlink">
    <!-- Generator: Sketch 53.1 (72631) - https://sketchapp.com -->
    <title>SCHL_Checkbox_Checked</title>
    <desc>Created with Sketch.</desc>
    <g id="Schluss-POC-New-User" stroke="none" stroke-width="1" fill="none" fill-rule="evenodd">
        <path d="M3,0 L21,0 C22.6568542,-3.04359188e-16 24,1.34314575 24,3 L24,21 C24,22.6568542 22.6568542,24 21,24 L3,24 C1.34314575,24 2.02906125e-16,22.6568542 0,21 L0,3 C-2.02906125e-16,1.34314575 1.34314575,3.04359188e-16 3,0 Z M16.4188569,7.72385763 L9.36166595,14.7810486 L6.94280904,12.3621917 C6.42210999,11.8414926 5.57789001,11.8414926 5.05719096,12.3621917 C4.5364919,12.8828907 4.5364919,13.7271107 5.05719096,14.2478098 L8.4188569,17.6094757 C8.93955596,18.1301748 9.78377593,18.1301748 10.304475,17.6094757 L18.304475,9.60947571 C18.825174,9.08877665 18.825174,8.24455668 18.304475,7.72385763 C17.7837759,7.20315857 16.939556,7.20315857 16.4188569,7.72385763 Z" id="SCHL_Checkbox_Checked" fill="#e2e1e9"></path>
    </g>
</svg>