<?xml version="1.0" encoding="UTF-8" standalone="no"?>
<svg width="120px" height="54px" viewBox="0 0 120 54" version="1.1" xmlns="http://www.w3.org/2000/svg" xmlns:xlink="http://www.w3.org/1999/xlink">
    <!-- Generator: Sketch 3.7.2 (28276) - http://www.bohemiancoding.com/sketch -->
    <title>Fill 1 Copy</title>
    <desc>Created with Sketch.</desc>
    <defs></defs>
    <g id="Page-1" stroke="none" stroke-width="1" fill="none" fill-rule="evenodd">
        <g id="Homepage-Schluss" transform="translate(-147.000000, -147.000000)" fill="#000000">
            <path d="M251.517698,162.794534 C254.312638,160.699913 256.994122,158.38817 259.533929,155.848363 C261.558288,153.824004 261.558288,150.542412 259.533929,148.518053 C257.508994,146.49427 254.227978,146.493694 252.203043,148.518053 C227.277226,173.443294 186.721516,173.442718 161.796851,148.518053 C159.771916,146.493694 156.4909,146.49427 154.465965,148.518053 C152.442182,150.542412 152.442182,153.824004 154.465965,155.848363 C157.005772,158.38817 159.687832,160.699913 162.482196,162.794534 C158.973115,166.912938 154.672721,170.32008 149.836144,172.778107 C147.284243,174.074503 146.266592,177.194837 147.563564,179.747315 C148.478125,181.547065 150.299184,182.583145 152.188202,182.583145 C152.978364,182.583145 153.780045,182.402306 154.532772,182.019895 C161.004385,178.730816 166.712328,174.089477 171.260368,168.45122 C174.391645,170.167461 177.620253,171.643544 180.92085,172.874861 C178.713925,177.801857 175.53427,182.279635 171.560998,186.008717 C169.473864,187.967997 169.369623,191.247861 171.328903,193.335571 C172.348857,194.422908 173.727609,194.97176 175.109241,194.97176 C176.380297,194.97176 177.655384,194.506416 178.655181,193.567667 C183.973802,188.576168 188.109483,182.512306 190.88657,175.829907 C194.476279,176.618917 198.25777,177.139549 201.713289,177.392378 L201.713289,195.461867 C201.713289,198.324766 204.034247,200.645147 206.896569,200.645147 C209.759468,200.645147 212.079849,198.324766 212.079849,195.461867 L212.079849,177.392378 C216.111289,177.139549 219.420526,176.618917 223.009659,175.829907 C225.786745,182.512306 230.000752,188.576168 235.318797,193.567667 C236.31917,194.506416 237.606351,194.97176 238.877982,194.97176 C240.259614,194.97176 241.644702,194.422332 242.664656,193.335571 C244.623936,191.247861 244.52315,187.967997 242.436016,186.008717 C238.462744,182.279635 235.284818,177.802433 233.077316,172.875437 C236.377914,171.643544 239.607673,170.167461 242.73895,168.45122 C247.28699,174.089477 252.994933,178.730816 259.467122,182.019895 C260.21985,182.402306 261.02153,182.583145 261.811692,182.583145 C263.70071,182.583145 265.521769,181.546489 266.43633,179.747315 C267.733302,177.194837 266.716227,174.074503 264.16375,172.778107 C259.327174,170.32008 255.026779,166.912938 251.517698,162.794534 Z" id="Fill-1-Copy"></path>
        </g>
    </g>
</svg>