<?xml version="1.0" encoding="utf-8"?>
<!-- Generator: Adobe Illustrator 19.1.0, SVG Export Plug-In . SVG Version: 6.00 Build 0)  -->
<svg version="1.1" id="Laag_1" xmlns="http://www.w3.org/2000/svg" xmlns:xlink="http://www.w3.org/1999/xlink" x="0px" y="0px"
	 viewBox="0 0 196.6 126.3" style="enable-background:new 0 0 196.6 126.3;" xml:space="preserve">
<style type="text/css">
	.st0{fill:none;stroke:#212121;stroke-width:18;stroke-linecap:round;stroke-miterlimit:10;}
	.st1{fill:#212121;}
	.st2{fill:none;stroke:#212121;stroke-width:8.412;stroke-linecap:round;stroke-miterlimit:10;}
	.st3{fill:#fb637e;}
</style>
<path class="st3" d="M194.4,44.4c3.2-3.8,2.8-9.4-0.9-12.7c-3.8-3.2-9.4-2.8-12.7,0.9c-5.1,5.9-11.1,10.9-17.7,14.8
	c-5-2.9-10.1-5.4-15.4-7.6c4.2-5.5,7.9-11.4,10.7-17.8c2-4.5,0-9.9-4.5-11.9c-4.5-2-9.9,0-11.9,4.5c-3.2,7.1-7.3,13.5-12.6,19.2
	c-7.1-1.7-14.7-2.9-21.7-3.4V9c0-5-4-9-9-9s-9,4-9,9v21.3c-8,0.5-15,1.7-22.2,3.4c-5.3-5.7-9.7-12.1-12.9-19.2
	c-2-4.5-7.4-6.5-12-4.5c-4.5,2-6.6,7.4-4.5,11.9c2.9,6.4,6.5,12.3,10.7,17.8c-5.3,2.2-10.4,4.7-15.4,7.6
	c-6.7-3.9-12.6-8.9-17.7-14.8c-3.2-3.8-8.9-4.2-12.7-0.9c-3.8,3.2-4.2,8.9-0.9,12.7c4.6,5.3,9.7,10,15.4,14.1
	c-3.6,2.9-7.1,6-10.4,9.4c-0.2,0.2-0.4,0.5-0.6,0.7c0,0,0,0,0,0c-2.4,2.7-3.7,6.1-3.7,9.7c0,3.6,1.3,7,3.7,9.7c0,0,0,0,0,0
	c0.2,0.2,0.4,0.5,0.6,0.7c25.1,25.1,58.2,37.7,91.2,37.7c33,0,66.1-12.6,91.2-37.7c0.2-0.2,0.4-0.5,0.6-0.7c2.4-2.7,3.7-6.1,3.7-9.7
	c0-3.6-1.3-7-3.7-9.7c-0.2-0.2-0.4-0.5-0.6-0.7c-3.3-3.3-6.8-6.5-10.5-9.4C184.7,54.4,189.8,49.7,194.4,44.4z M174.4,78.2
	C162.8,89.1,149.5,97,135.3,102c4.4-6.9,7-15,7-23.8c0-8.8-2.6-17-7.1-23.9c7.9,2.8,15.5,6.4,22.5,11c0.2,0.1,0.3,0.2,0.5,0.3
	C164,69.2,169.3,73.5,174.4,78.2z M22.8,78c5-4.7,10.1-8.8,15.7-12.4c0.2-0.1,0.2-0.2,0.4-0.3c7.1-4.5,14.6-8.2,22.5-11
	c-4.5,6.9-7.1,15.1-7.1,23.9c0,8.8,2.7,16.9,7.2,23.8c-14.1-5-27.7-12.8-38.7-23.6V78z M98.3,52.2c14.3,0,26,11.7,26,26
	s-11.7,26-26,26s-26-11.7-26-26S84,52.2,98.3,52.2z"/>
</svg>
